\relax 
\providecommand\hyper@newdestlabel[2]{}
\providecommand\HyperFirstAtBeginDocument{\AtBeginDocument}
\HyperFirstAtBeginDocument{\ifx\hyper@anchor\@undefined
\global\let\oldcontentsline\contentsline
\gdef\contentsline#1#2#3#4{\oldcontentsline{#1}{#2}{#3}}
\global\let\oldnewlabel\newlabel
\gdef\newlabel#1#2{\newlabelxx{#1}#2}
\gdef\newlabelxx#1#2#3#4#5#6{\oldnewlabel{#1}{{#2}{#3}}}
\AtEndDocument{\ifx\hyper@anchor\@undefined
\let\contentsline\oldcontentsline
\let\newlabel\oldnewlabel
\fi}
\fi}
\global\let\hyper@last\relax 
\gdef\HyperFirstAtBeginDocument#1{#1}
\providecommand\HyField@AuxAddToFields[1]{}
\providecommand\HyField@AuxAddToCoFields[2]{}
\@input{titlepage.aux}
\babel@aux{english}{}
\@input{declaration.aux}
\@input{permissiontolend.aux}
\@writefile{toc}{\contentsline {chapter}{List of Figures}{ix}{chapter*.8}}
\@writefile{toc}{\contentsline {chapter}{List of Tables}{x}{chapter*.9}}
\@writefile{toc}{\contentsline {chapter}{List of Listings}{xi}{chapter*.10}}
\citation{dna}
\citation{bwa}
\citation{soap2}
\citation{bowtie}
\citation{bwt}
\citation{bwbble}
\@writefile{toc}{\contentsline {chapter}{\numberline {1}Introduction}{1}{chapter.1}}
\@writefile{lof}{\addvspace {10\p@ }}
\@writefile{lot}{\addvspace {10\p@ }}
\citation{bwbble}
\citation{bwbble}
\citation{bwbble}
\@writefile{toc}{\contentsline {section}{\numberline {1.1}Aim}{2}{section.1.1}}
\citation{aws}
\@writefile{toc}{\contentsline {section}{\numberline {1.2}Motivations}{3}{section.1.2}}
\@writefile{lot}{\contentsline {table}{\numberline {1.1}{\ignorespaces BWA vs Bwbble\relax }}{3}{table.caption.11}}
\providecommand*\caption@xref[2]{\@setref\relax\@undefined{#1}}
\newlabel{bwavbwbble}{{1.1}{3}{BWA vs Bwbble\relax }{table.caption.11}{}}
\@writefile{toc}{\contentsline {section}{\numberline {1.3}Paper Overview}{4}{section.1.3}}
\citation{snp}
\citation{genass}
\citation{alignment}
\citation{bwt}
\citation{sparkbwa}
\@writefile{toc}{\contentsline {chapter}{\numberline {2}State of the Art}{5}{chapter.2}}
\@writefile{lof}{\addvspace {10\p@ }}
\@writefile{lot}{\addvspace {10\p@ }}
\@writefile{toc}{\contentsline {section}{\numberline {2.1}DNA Alignment}{5}{section.2.1}}
\citation{bwt}
\citation{bwbble}
\citation{bwbble}
\@writefile{toc}{\contentsline {section}{\numberline {2.2}Read Alignment Programs}{6}{section.2.2}}
\@writefile{toc}{\contentsline {subsection}{\numberline {2.2.1}Bwbble}{6}{subsection.2.2.1}}
\citation{sparkapp}
\citation{apachespark}
\newlabel{bwbble}{{2.1}{7}{Bwbble commands usage}{lstlisting.2.1}{}}
\@writefile{lol}{\contentsline {lstlisting}{\numberline {2.1}Bwbble commands usage}{7}{lstlisting.2.1}}
\@writefile{toc}{\contentsline {subsection}{\numberline {2.2.2}Read Alignment Programs based on Apache Spark}{7}{subsection.2.2.2}}
\citation{sparksw}
\citation{dsa}
\citation{cloudsw}
\citation{seal}
\citation{pbwa}
\citation{bigbwa}
\citation{halvade}
\citation{sparkbwa}
\citation{streambwa}
\citation{pastaspark}
\citation{ppcas}
\citation{sparkblast}
\citation{frhit}
\citation{metaspark}
\gdef \LT@i {\LT@entry 
    {4}{83.93187pt}\LT@entry 
    {1}{168.89014pt}\LT@entry 
    {1}{111.98463pt}\LT@entry 
    {4}{62.1923pt}}
\@writefile{lot}{\contentsline {table}{\numberline {2.2}{\ignorespaces Bioinformatics tools and algorithms based on Apache Spark\relax }}{10}{table.2.2}}
\newlabel{sparktools}{{2.2}{10}{Bioinformatics tools and algorithms based on Apache Spark\relax }{table.2.2}{}}
\citation{sparkbwbble}
\citation{canalys}
\@writefile{toc}{\contentsline {subsection}{\numberline {2.2.3}SparkBwbble}{11}{subsection.2.2.3}}
\@writefile{toc}{\contentsline {section}{\numberline {2.3}Amazon Web Services (AWS)}{11}{section.2.3}}
\citation{ec2}
\@writefile{toc}{\contentsline {subsection}{\numberline {2.3.1}Elastic Compute Cloud (EC2)}{12}{subsection.2.3.1}}
\citation{efs}
\citation{awscli}
\@writefile{toc}{\contentsline {subsection}{\numberline {2.3.2}Elastic File System (EFS)}{13}{subsection.2.3.2}}
\@writefile{toc}{\contentsline {subsection}{\numberline {2.3.3}Amazon Web Services Command Line Interface (AWS-CLI)}{14}{subsection.2.3.3}}
\citation{sparkbwbble}
\@writefile{toc}{\contentsline {chapter}{\numberline {3}Design}{15}{chapter.3}}
\@writefile{lof}{\addvspace {10\p@ }}
\@writefile{lot}{\addvspace {10\p@ }}
\@writefile{toc}{\contentsline {section}{\numberline {3.1}Architecture}{16}{section.3.1}}
\@writefile{lof}{\contentsline {figure}{\numberline {3.1}{\ignorespaces System architecture overview\relax }}{16}{figure.caption.12}}
\newlabel{sysarch}{{3.1}{16}{System architecture overview\relax }{figure.caption.12}{}}
\@writefile{toc}{\contentsline {subsection}{\numberline {3.1.1}AWS Components}{17}{subsection.3.1.1}}
\@writefile{toc}{\contentsline {section}{\numberline {3.2}BwbbleC}{17}{section.3.2}}
\@writefile{toc}{\contentsline {section}{\numberline {3.3}Usage}{18}{section.3.3}}
\@writefile{toc}{\contentsline {subsection}{\numberline {3.3.1}AWS Startup Script}{18}{subsection.3.3.1}}
\newlabel{lst:startaws}{{3.1}{18}{Executing AWS startup script}{lstlisting.3.1}{}}
\@writefile{lol}{\contentsline {lstlisting}{\numberline {3.1}Executing AWS startup script}{18}{lstlisting.3.1}}
\@writefile{toc}{\contentsline {subsection}{\numberline {3.3.2}BwbbleC Program}{18}{subsection.3.3.2}}
\newlabel{lst:bwbble}{{3.2}{19}{Bwbble align usage options}{lstlisting.3.2}{}}
\@writefile{lol}{\contentsline {lstlisting}{\numberline {3.2}Bwbble align usage options}{19}{lstlisting.3.2}}
\newlabel{lst:bwbblec}{{3.3}{20}{BwbbleC align usage options}{lstlisting.3.3}{}}
\@writefile{lol}{\contentsline {lstlisting}{\numberline {3.3}BwbbleC align usage options}{20}{lstlisting.3.3}}
\newlabel{lst:align}{{3.4}{21}{BwbbleC complete alignment process}{lstlisting.3.4}{}}
\@writefile{lol}{\contentsline {lstlisting}{\numberline {3.4}BwbbleC complete alignment process}{21}{lstlisting.3.4}}
\@writefile{toc}{\contentsline {chapter}{\numberline {4}Implementation}{22}{chapter.4}}
\@writefile{lof}{\addvspace {10\p@ }}
\@writefile{lot}{\addvspace {10\p@ }}
\@writefile{toc}{\contentsline {section}{\numberline {4.1}Creating Initial AWS Infrastructure}{22}{section.4.1}}
\@writefile{toc}{\contentsline {subsection}{\numberline {4.1.1}start\_aws.sh}{22}{subsection.4.1.1}}
\citation{awsmount}
\@writefile{toc}{\contentsline {subsection}{\numberline {4.1.2}init\_master.sh}{24}{subsection.4.1.2}}
\@writefile{toc}{\contentsline {subsection}{\numberline {4.1.3}init\_slave.sh}{25}{subsection.4.1.3}}
\@writefile{toc}{\contentsline {section}{\numberline {4.2}BwbbleC}{25}{section.4.2}}
\@writefile{toc}{\contentsline {subsection}{\numberline {4.2.1}Alignment code running on Master AWS Instance}{26}{subsection.4.2.1}}
\@writefile{toc}{\contentsline {subsection}{\numberline {4.2.2}Alignment code running on Slave AWS Instances}{27}{subsection.4.2.2}}
\@writefile{lof}{\contentsline {figure}{\numberline {4.1}{\ignorespaces Master instance processes (in case of 3 slave instances)\relax }}{28}{figure.caption.13}}
\newlabel{master_process}{{4.1}{28}{Master instance processes (in case of 3 slave instances)\relax }{figure.caption.13}{}}
\@writefile{toc}{\contentsline {section}{\numberline {4.3}Verifying Results}{29}{section.4.3}}
\newlabel{lst:verify}{{4.1}{29}{Verifying results of alignment}{lstlisting.4.1}{}}
\@writefile{lol}{\contentsline {lstlisting}{\numberline {4.1}Verifying results of alignment}{29}{lstlisting.4.1}}
\@writefile{toc}{\contentsline {chapter}{\numberline {5}Results and Discussion}{30}{chapter.5}}
\@writefile{lof}{\addvspace {10\p@ }}
\@writefile{lot}{\addvspace {10\p@ }}
\@writefile{toc}{\contentsline {section}{\numberline {5.1}Initial Setup Time}{30}{section.5.1}}
\@writefile{toc}{\contentsline {subsection}{\numberline {5.1.1}Master Instance Initialisation Script Execution Time}{31}{subsection.5.1.1}}
\@writefile{lof}{\contentsline {figure}{\numberline {5.1}{\ignorespaces AWS environment startup time for varying number of instances\relax }}{32}{figure.caption.14}}
\newlabel{startup}{{5.1}{32}{AWS environment startup time for varying number of instances\relax }{figure.caption.14}{}}
\@writefile{lof}{\contentsline {figure}{\numberline {5.2}{\ignorespaces Execution time of master instance initialisation script across 15 runs\relax }}{33}{figure.caption.15}}
\newlabel{master_init}{{5.2}{33}{Execution time of master instance initialisation script across 15 runs\relax }{figure.caption.15}{}}
\@writefile{toc}{\contentsline {subsection}{\numberline {5.1.2}Slave Instance Initialisation Script Execution Time}{33}{subsection.5.1.2}}
\@writefile{toc}{\contentsline {section}{\numberline {5.2}Alignment Speedup}{34}{section.5.2}}
\@writefile{lof}{\contentsline {figure}{\numberline {5.3}{\ignorespaces Alignment runtime based on the total number of AWS instances\relax }}{34}{figure.caption.16}}
\newlabel{align_runtime}{{5.3}{34}{Alignment runtime based on the total number of AWS instances\relax }{figure.caption.16}{}}
\citation{sparkbwbble}
\@writefile{lof}{\contentsline {figure}{\numberline {5.4}{\ignorespaces Speedup in alignment based on total number of instances used compared to alignment using a single machine\relax }}{35}{figure.caption.17}}
\newlabel{speedup}{{5.4}{35}{Speedup in alignment based on total number of instances used compared to alignment using a single machine\relax }{figure.caption.17}{}}
\@writefile{toc}{\contentsline {subsection}{\numberline {5.2.1}Comparing Speedup to SparkBwbble}{35}{subsection.5.2.1}}
\@writefile{lof}{\contentsline {figure}{\numberline {5.5}{\ignorespaces Alignment runtime comparison using chromosome 21 and 12 million reads\relax }}{36}{figure.caption.18}}
\newlabel{bwbble_sparkbwbble}{{5.5}{36}{Alignment runtime comparison using chromosome 21 and 12 million reads\relax }{figure.caption.18}{}}
\@writefile{toc}{\contentsline {chapter}{\numberline {6}Conclusions}{37}{chapter.6}}
\@writefile{lof}{\addvspace {10\p@ }}
\@writefile{lot}{\addvspace {10\p@ }}
\citation{ec2states}
\@writefile{toc}{\contentsline {chapter}{\numberline {7}Future Work}{39}{chapter.7}}
\@writefile{lof}{\addvspace {10\p@ }}
\@writefile{lot}{\addvspace {10\p@ }}
\@writefile{toc}{\contentsline {section}{\numberline {7.1}Improve AWS Scripts}{39}{section.7.1}}
\citation{efsprice}
\@writefile{toc}{\contentsline {section}{\numberline {7.2}Improve BwbbleC Code}{40}{section.7.2}}
\citation{cuda}
\citation{opencl}
\@writefile{toc}{\contentsline {section}{\numberline {7.3}Parallelise Bwbble alignment using GPUs}{41}{section.7.3}}
\bibcite{dna}{1}
\bibcite{bwa}{2}
\bibcite{soap2}{3}
\bibcite{bowtie}{4}
\bibcite{bwt}{5}
\bibcite{bwbble}{6}
\bibcite{aws}{7}
\bibcite{snp}{8}
\bibcite{genass}{9}
\@writefile{toc}{\contentsline {chapter}{Bibliography}{43}{chapter*.19}}
\bibcite{alignment}{10}
\bibcite{sparkbwa}{11}
\bibcite{sparkapp}{12}
\bibcite{apachespark}{13}
\bibcite{sparksw}{14}
\bibcite{dsa}{15}
\bibcite{cloudsw}{16}
\bibcite{seal}{17}
\bibcite{pbwa}{18}
\bibcite{bigbwa}{19}
\bibcite{halvade}{20}
\bibcite{streambwa}{21}
\bibcite{pastaspark}{22}
\bibcite{ppcas}{23}
\bibcite{sparkblast}{24}
\bibcite{metaspark}{25}
\bibcite{frhit}{26}
\bibcite{sparkbwbble}{27}
\bibcite{canalys}{28}
\bibcite{ec2}{29}
\bibcite{efs}{30}
\bibcite{awscli}{31}
\bibcite{awsmount}{32}
\bibcite{ec2states}{33}
\bibcite{efsprice}{34}
\bibcite{cuda}{35}
\bibcite{opencl}{36}
