\boolfalse {citerequest}\boolfalse {citetracker}\boolfalse {pagetracker}\boolfalse {backtracker}\relax 
\defcounter {refsection}{0}\relax 
\contentsline {section}{\numberline {0.1}Introduction}{4}{section.0.1}
\defcounter {refsection}{0}\relax 
\contentsline {section}{\numberline {0.2}Motivations}{4}{section.0.2}
\defcounter {refsection}{0}\relax 
\contentsline {section}{\numberline {0.3}Table of Abbreviations}{5}{section.0.3}
\defcounter {refsection}{0}\relax 
\contentsline {section}{\numberline {0.4}Prior Work}{6}{section.0.4}
\defcounter {refsection}{0}\relax 
\contentsline {section}{\numberline {0.5}Literature}{6}{section.0.5}
\defcounter {refsection}{0}\relax 
\contentsline {subsection}{\numberline {0.5.1}Keywords}{6}{subsection.0.5.1}
\defcounter {refsection}{0}\relax 
\contentsline {subsection}{\numberline {0.5.2}Literature Source List}{7}{subsection.0.5.2}
\defcounter {refsection}{0}\relax 
\contentsline {subsection}{\numberline {0.5.3}Literature Source Strategy}{7}{subsection.0.5.3}
\defcounter {refsection}{0}\relax 
\contentsline {section}{\numberline {0.6}Methodology}{7}{section.0.6}
\defcounter {refsection}{0}\relax 
\contentsline {section}{\numberline {0.7}Evaluation}{8}{section.0.7}
\defcounter {refsection}{0}\relax 
\contentsline {section}{\numberline {0.8}Research Area}{9}{section.0.8}
\defcounter {refsection}{0}\relax 
\contentsline {section}{\numberline {0.9}Ethics}{9}{section.0.9}
\defcounter {refsection}{0}\relax 
\contentsline {section}{\numberline {0.10}Benefits of this Research}{9}{section.0.10}
\defcounter {refsection}{0}\relax 
\contentsline {section}{\numberline {0.11}Proposed Table of Contents for Dissertation}{11}{section.0.11}
\defcounter {refsection}{0}\relax 
\contentsline {section}{\numberline {0.12}Skills Audit}{12}{section.0.12}
\defcounter {refsection}{0}\relax 
\contentsline {section}{\numberline {0.13}Anticipated Problems}{13}{section.0.13}
\defcounter {refsection}{0}\relax 
\contentsline {section}{\numberline {0.14}Gantt Chart}{13}{section.0.14}
\defcounter {refsection}{0}\relax 
\contentsline {section}{\numberline {0.15}Research Dissemination Plan}{13}{section.0.15}
