\relax 
\providecommand\hyper@newdestlabel[2]{}
\providecommand\HyperFirstAtBeginDocument{\AtBeginDocument}
\HyperFirstAtBeginDocument{\ifx\hyper@anchor\@undefined
\global\let\oldcontentsline\contentsline
\gdef\contentsline#1#2#3#4{\oldcontentsline{#1}{#2}{#3}}
\global\let\oldnewlabel\newlabel
\gdef\newlabel#1#2{\newlabelxx{#1}#2}
\gdef\newlabelxx#1#2#3#4#5#6{\oldnewlabel{#1}{{#2}{#3}}}
\AtEndDocument{\ifx\hyper@anchor\@undefined
\let\contentsline\oldcontentsline
\let\newlabel\oldnewlabel
\fi}
\fi}
\global\let\hyper@last\relax 
\gdef\HyperFirstAtBeginDocument#1{#1}
\providecommand\HyField@AuxAddToFields[1]{}
\providecommand\HyField@AuxAddToCoFields[2]{}
\@input{titlepage.aux}
\babel@aux{english}{}
\@input{declaration.aux}
\@input{permissiontolend.aux}
\@writefile{toc}{\contentsline {section}{List of Figures}{ix}{section*.8}}
\@writefile{toc}{\contentsline {section}{List of Tables}{x}{section*.10}}
\@writefile{toc}{\contentsline {section}{List of Listings}{xi}{section*.12}}
\citation{dna}
\citation{bwa}
\citation{soap2}
\citation{bowtie}
\citation{bwt}
\citation{bwbble}
\@writefile{toc}{\contentsline {section}{\numberline {1}Introduction}{1}{section.0.1}}
\citation{bwbble}
\citation{bwbble}
\citation{bwbble}
\@writefile{toc}{\contentsline {subsection}{\numberline {1.1}Aim}{2}{subsection.0.1.1}}
\@writefile{toc}{\contentsline {subsection}{\numberline {1.2}Motivations}{2}{subsection.0.1.2}}
\citation{aws}
\@writefile{lot}{\contentsline {table}{\numberline {1}{\ignorespaces BWA vs Bwbble\relax }}{3}{table.caption.14}}
\providecommand*\caption@xref[2]{\@setref\relax\@undefined{#1}}
\newlabel{tab:title}{{1}{3}{BWA vs Bwbble\relax }{table.caption.14}{}}
\@writefile{toc}{\contentsline {subsection}{\numberline {1.3}Paper Overview}{3}{subsection.0.1.3}}
\citation{snp}
\citation{genass}
\citation{alignment}
\citation{bwt}
\citation{sparkbwa}
\citation{bwt}
\citation{bwbble}
\@writefile{toc}{\contentsline {section}{\numberline {2}State of the Art}{5}{section.0.2}}
\@writefile{toc}{\contentsline {subsection}{\numberline {2.1}DNA Alignment}{5}{subsection.0.2.1}}
\citation{bwbble}
\@writefile{toc}{\contentsline {subsection}{\numberline {2.2}Read Alignment Programs}{6}{subsection.0.2.2}}
\@writefile{toc}{\contentsline {subsubsection}{Bwbble}{6}{section*.15}}
\citation{sparkapp}
\citation{apachespark}
\citation{sparksw}
\citation{dsa}
\citation{cloudsw}
\citation{seal}
\citation{pbwa}
\citation{bigbwa}
\citation{halvade}
\citation{sparkbwa}
\citation{streambwa}
\citation{pastaspark}
\citation{ppcas}
\citation{sparkblast}
\citation{frhit}
\citation{metaspark}
\@writefile{toc}{\contentsline {subsubsection}{Read Alignment Programs based on Apache Spark}{7}{section*.16}}
\gdef \LT@i {\LT@entry 
    {4}{83.93187pt}\LT@entry 
    {1}{168.89014pt}\LT@entry 
    {1}{111.98463pt}\LT@entry 
    {4}{62.1923pt}}
\@writefile{lot}{\contentsline {table}{\numberline {3}{\ignorespaces Bioinformatics tools and algorithms based on Apache Spark\relax }}{10}{table.0.3}}
\newlabel{tab:title}{{3}{10}{Bioinformatics tools and algorithms based on Apache Spark\relax }{table.0.3}{}}
\citation{sparkbwbble}
\citation{canalys}
\@writefile{toc}{\contentsline {subsubsection}{SparkBwbble}{11}{section*.17}}
\@writefile{toc}{\contentsline {subsection}{\numberline {2.3}Amazon Web Services (AWS)}{11}{subsection.0.2.3}}
\citation{ec2}
\@writefile{toc}{\contentsline {subsubsection}{Elastic Compute Cloud (EC2)}{12}{section*.18}}
\citation{efs}
\citation{awscli}
\@writefile{toc}{\contentsline {subsubsection}{Elastic File System (EFS)}{13}{section*.19}}
\@writefile{toc}{\contentsline {subsubsection}{Amazon Web Services Command Line Interface (AWS-CLI)}{13}{section*.20}}
\citation{sparkbwbble}
\@writefile{toc}{\contentsline {section}{\numberline {3}Design}{15}{section.0.3}}
\@writefile{toc}{\contentsline {subsection}{\numberline {3.1}Architecture}{16}{subsection.0.3.1}}
\@writefile{lof}{\contentsline {figure}{\numberline {1}{\ignorespaces System architecture overview\relax }}{16}{figure.caption.21}}
\newlabel{sysarch}{{1}{16}{System architecture overview\relax }{figure.caption.21}{}}
\@writefile{toc}{\contentsline {subsubsection}{AWS Components}{16}{section*.22}}
\@writefile{toc}{\contentsline {subsection}{\numberline {3.2}BwbbleC}{17}{subsection.0.3.2}}
\@writefile{toc}{\contentsline {subsection}{\numberline {3.3}Usage}{18}{subsection.0.3.3}}
\@writefile{toc}{\contentsline {subsubsection}{AWS Start Up Script}{18}{section*.23}}
\@writefile{lol}{\contentsline {lstlisting}{\numberline {1}Executing AWS start up script}{18}{lstlisting.0.1}}
\@writefile{toc}{\contentsline {subsubsection}{BwbbleC Program}{18}{section*.24}}
\@writefile{lol}{\contentsline {lstlisting}{\numberline {2}Bwbble align usage options}{19}{lstlisting.0.2}}
\@writefile{lol}{\contentsline {lstlisting}{\numberline {3}BwbbleC align usage options}{19}{lstlisting.0.3}}
\@writefile{lol}{\contentsline {lstlisting}{\numberline {4}BwbbleC complete alignment process}{20}{lstlisting.0.4}}
\@writefile{toc}{\contentsline {section}{\numberline {4}Implementation}{21}{section.0.4}}
\@writefile{toc}{\contentsline {subsection}{\numberline {4.1}Creating Initial AWS Infrastructure}{21}{subsection.0.4.1}}
\@writefile{toc}{\contentsline {subsubsection}{start\_aws.sh}{21}{section*.25}}
\citation{awsmount}
\@writefile{toc}{\contentsline {subsubsection}{init\_master.sh}{23}{section*.26}}
\@writefile{toc}{\contentsline {subsubsection}{init\_slave.sh}{23}{section*.27}}
\@writefile{toc}{\contentsline {subsection}{\numberline {4.2}BwbbleC}{24}{subsection.0.4.2}}
\@writefile{toc}{\contentsline {subsubsection}{Alignment code running on Master AWS Instance}{25}{section*.28}}
\@writefile{toc}{\contentsline {subsubsection}{Alignment code running on Slave AWS Instances}{26}{section*.30}}
\@writefile{lof}{\contentsline {figure}{\numberline {2}{\ignorespaces Master instance processes (in case of 3 slave instances)\relax }}{27}{figure.caption.29}}
\newlabel{master_process}{{2}{27}{Master instance processes (in case of 3 slave instances)\relax }{figure.caption.29}{}}
\@writefile{toc}{\contentsline {subsection}{\numberline {4.3}Verifying Results}{28}{subsection.0.4.3}}
\@writefile{lol}{\contentsline {lstlisting}{\numberline {5}Verifying results of alignment}{28}{lstlisting.0.5}}
\@writefile{toc}{\contentsline {section}{\numberline {5}Results and Discussion}{29}{section.0.5}}
\@writefile{toc}{\contentsline {subsection}{\numberline {5.1}Initial Setup Time}{29}{subsection.0.5.1}}
\@writefile{toc}{\contentsline {subsubsection}{Master Instance Initialisation Script Execution Time}{30}{section*.32}}
\@writefile{lof}{\contentsline {figure}{\numberline {3}{\ignorespaces AWS environment start-up time for varying number of instances\relax }}{31}{figure.caption.31}}
\newlabel{startup}{{3}{31}{AWS environment start-up time for varying number of instances\relax }{figure.caption.31}{}}
\@writefile{lof}{\contentsline {figure}{\numberline {4}{\ignorespaces Execution time of master instance initialisation script across 15 runs\relax }}{32}{figure.caption.33}}
\newlabel{master_init}{{4}{32}{Execution time of master instance initialisation script across 15 runs\relax }{figure.caption.33}{}}
\@writefile{toc}{\contentsline {subsubsection}{Slave Instance Initialisation Script Execution Time}{32}{section*.34}}
\@writefile{toc}{\contentsline {subsection}{\numberline {5.2}Alignment Speed-up}{32}{subsection.0.5.2}}
\@writefile{lof}{\contentsline {figure}{\numberline {5}{\ignorespaces Alignment runtime based on the total number of AWS instances\relax }}{33}{figure.caption.35}}
\newlabel{align_runtime}{{5}{33}{Alignment runtime based on the total number of AWS instances\relax }{figure.caption.35}{}}
\@writefile{toc}{\contentsline {subsubsection}{Comparing Speedup to SparkBwbble}{33}{section*.37}}
\citation{sparkbwbble}
\@writefile{lof}{\contentsline {figure}{\numberline {6}{\ignorespaces Speedup in alignment based on total number of instances used compared to alignment using a single machine\relax }}{34}{figure.caption.36}}
\newlabel{speedup}{{6}{34}{Speedup in alignment based on total number of instances used compared to alignment using a single machine\relax }{figure.caption.36}{}}
\@writefile{lof}{\contentsline {figure}{\numberline {7}{\ignorespaces Alignment runtime comparison using chromosome 21 and 12 million reads\relax }}{35}{figure.caption.38}}
\newlabel{bwbble_sparkbwbble}{{7}{35}{Alignment runtime comparison using chromosome 21 and 12 million reads\relax }{figure.caption.38}{}}
\@writefile{toc}{\contentsline {section}{\numberline {6}Conclusions}{36}{section.0.6}}
\citation{ec2states}
\citation{efsprice}
\@writefile{toc}{\contentsline {section}{\numberline {7}Future Work}{38}{section.0.7}}
\@writefile{toc}{\contentsline {subsection}{\numberline {7.1}Improve AWS Scripts}{38}{subsection.0.7.1}}
\@writefile{toc}{\contentsline {subsection}{\numberline {7.2}Improve BwbbleC Code}{39}{subsection.0.7.2}}
\citation{cuda}
\citation{opencl}
\@writefile{toc}{\contentsline {subsection}{\numberline {7.3}Parallelise Bwbble alignment using GPUs}{40}{subsection.0.7.3}}
\bibcite{dna}{1}
\bibcite{bwa}{2}
\bibcite{soap2}{3}
\bibcite{bowtie}{4}
\bibcite{bwt}{5}
\bibcite{bwbble}{6}
\bibcite{aws}{7}
\bibcite{snp}{8}
\bibcite{genass}{9}
\bibcite{alignment}{10}
\bibcite{sparkbwa}{11}
\bibcite{sparkapp}{12}
\bibcite{apachespark}{13}
\bibcite{sparksw}{14}
\bibcite{dsa}{15}
\bibcite{cloudsw}{16}
\bibcite{seal}{17}
\bibcite{pbwa}{18}
\bibcite{bigbwa}{19}
\bibcite{halvade}{20}
\bibcite{streambwa}{21}
\bibcite{pastaspark}{22}
\bibcite{ppcas}{23}
\bibcite{sparkblast}{24}
\bibcite{metaspark}{25}
\bibcite{frhit}{26}
\bibcite{sparkbwbble}{27}
\bibcite{canalys}{28}
\bibcite{ec2}{29}
\bibcite{efs}{30}
\bibcite{awscli}{31}
\bibcite{awsmount}{32}
\bibcite{ec2states}{33}
\bibcite{efsprice}{34}
\bibcite{cuda}{35}
\bibcite{opencl}{36}
